<?xml version="1.0" encoding="UTF-8"?>
<svg width="1440px" height="287px" viewBox="0 0 1440 287" version="1.1" xmlns="http://www.w3.org/2000/svg" xmlns:xlink="http://www.w3.org/1999/xlink">
    <!-- Generator: Sketch 59.1 (86144) - https://sketch.com -->
    <title>Group 17@1x</title>
    <desc>Created with Sketch.</desc>
    <defs>
        <rect id="path-1" x="0" y="0" width="1440" height="396"></rect>
    </defs>
    <g id="Availables-Landing-screens" stroke="none" stroke-width="1" fill="none" fill-rule="evenodd">
        <g id="Group-17" transform="translate(0.000000, -109.000000)">
            <mask id="mask-2" fill="white">
                <use xlink:href="#path-1"></use>
            </mask>
            <g id="Mask"></g>
            <g mask="url(#mask-2)">
                <g transform="translate(-8.000000, 110.000000)">
                    <g id="Group-5" stroke="none" fill="none" fill-rule="evenodd" transform="translate(0.000000, 56.000000)" opacity="0.100000001">
                        <path d="M1382.61574,43.173873 L1382.61574,51.9135235 L1398.50167,51.9135235 L1398.50167,119.908004 L1432.71751,119.908004 L1432.71751,125.50138 L1450,125.50138 L1450,190 L1347.87619,190 L1347.87619,51.9135235 L1363.76211,51.9135235 L1363.76211,43.173873 L1382.61574,43.173873 Z M1252.21148,14.6826127 L1252.21148,25.3449862 L1262.68572,25.3449862 L1262.68572,36.3569457 L1269.49398,36.3569457 L1269.49398,119.908004 L1309.81979,119.908004 L1309.81979,125.50138 L1326.92771,125.50138 L1326.92771,190 L1196.17431,190 L1196.17431,36.3569457 L1202.808,36.3569457 L1202.808,25.3449862 L1213.28224,25.3449862 L1213.28224,14.6826127 L1252.21148,14.6826127 Z M884.914894,102.953082 L884.914894,109.770009 L902.022815,109.770009 L902.022815,190 L834.114842,190 L834.114842,102.953082 L884.914894,102.953082 Z M956.139708,-2.7000624e-13 L956.139708,10.4875805 L961.027685,10.4875805 L961.027685,21.324747 L968.185081,21.324747 L968.185081,32.6862925 L972.723917,32.6862925 L972.723917,190 L922.796719,190 L922.796719,32.6862925 L927.335555,32.6862925 L927.335555,21.324747 L934.492951,21.324747 L934.492951,10.4875805 L939.380928,10.4875805 L939.380928,-2.7000624e-13 L956.139708,-2.7000624e-13 Z M1088.63881,0.349586017 L1088.63881,190 L1000.1315,190 L1000.1315,116.237351 L1020.20713,116.237351 L1020.20713,109.770009 L1056.86696,109.770009 L1056.86696,0.349586017 L1088.63881,0.349586017 Z M1152.18252,88.0956762 L1152.18252,96.1361546 L1170.86157,96.1361546 L1170.86157,190 L1097.19277,190 L1097.19277,88.0956762 L1152.18252,88.0956762 Z M803.739554,2.27230911 L803.739554,13.4590616 L819.625481,13.4590616 L819.625481,190 L769,190 L769,13.4590616 L784.885927,13.4590616 L784.885927,2.27230911 L803.739554,2.27230911 Z" id="Combined-Shape" fill="#FAFAFA" fill-rule="nonzero"></path>
                        <path d="M594.204883,55.6756477 L594.204883,65.4829016 L607.312343,65.4829016 L607.312343,73.8891192 L612.730094,73.8891192 L612.730094,113.468394 L637.37212,113.468394 L637.37212,190 L555.756331,190 L555.756331,73.8891192 L560.999316,73.8891192 L560.999316,65.4829016 L563.97034,65.4829016 L563.97034,55.6756477 L594.204883,55.6756477 Z M763.203742,102.785492 L763.203742,108.564767 L766,108.564767 L766,190 L734.716861,190 L734.716861,108.564767 L737.513119,108.564767 L737.513119,102.785492 L763.203742,102.785492 Z M426.429386,55.1502591 L426.429386,190 L385.534109,190 L385.534109,55.1502591 L426.429386,55.1502591 Z M678.791695,21 L678.791695,30.9823834 L687.355236,30.9823834 L687.355236,190 L660.266484,190 L660.266484,30.9823834 L668.655259,30.9823834 L668.655259,21 L678.791695,21 Z M298.151038,45.3430052 L298.151038,55.1502591 L304.267853,55.1502591 L304.267853,190 L186.300707,190 L186.300707,133.258031 L201.854894,133.258031 L201.854894,128.529534 L237.157655,128.529534 L237.157655,55.1502591 L243.449236,55.1502591 L243.449236,45.3430052 L298.151038,45.3430052 Z M489.869496,84.3968912 L489.869496,92.8031088 L506.647045,92.8031088 L506.647045,190 L439.187315,190 L439.187315,92.8031088 L472.91718,92.8031088 L472.91718,84.3968912 L489.869496,84.3968912 Z M355.1248,61.1046632 L355.1248,182.294301 L337.822952,182.294301 L337.822952,190 L320.69587,190 L320.69587,68.6352332 L333.453799,68.6352332 L333.453799,61.1046632 L355.1248,61.1046632 Z M167.076432,68.6352332 L167.076432,190 L-4.26325641e-14,190 L-4.26325641e-14,123.801036 L24.9915583,123.801036 L24.9915583,107.51399 L42.1186402,107.51399 L42.1186402,100.508808 L92.4512891,100.508808 L92.4512891,128.529534 L116.569017,128.529534 L116.569017,68.6352332 L167.076432,68.6352332 Z" id="Combined-Shape" fill="#FFFFFF" fill-rule="nonzero"></path>
                    </g>
                    <path d="M1067.09234,239.184869 L1067.09234,120.881193 L1056.61129,120.881193 L1056.61129,113.017581 L1044.20872,113.017581 L1044.20872,120.881193 L1033.72767,120.881193 L1033.72767,197.595099 L1028.83651,197.595099 L1028.83651,188.683005 L1012.76557,188.683005 L1012.76557,197.595099 L1007.87441,197.595099 L1007.87441,239.010123 L999.838942,239.010123 L999.838942,101.484283 L994.598418,101.484283 L994.598418,97.8145978 L970.317321,97.8145978 L970.317321,101.484283 L965.076796,101.484283 L965.076796,239.010123 L952.848905,239.010123 L952.848905,170.509323 L944.63875,170.509323 C944.63875,163.694193 939.398226,153.209377 932.934912,153.209377 C926.471599,153.209377 921.231074,163.694193 921.231074,170.509323 L913.020919,170.509323 L913.020919,239.010123 L908.653815,239.010123 L908.653815,134.161961 L904.985448,134.161961 L904.985448,121.580181 L888.21577,121.580181 L888.21577,134.161961 L884.547402,134.161961 L884.547402,218.564731 L859.742253,218.564731 L859.742253,181.51838 L859.742253,175.926478 L835.985208,175.926478 L835.985208,181.51838 L827.949737,181.51838 L827.949737,218.564731 L814.848426,218.564731 L814.848426,80.689398 L814.848426,66.5348961 L802.969904,66.5348961 L802.969904,80.8641449 L783.05591,80.8641449 L783.05591,239.184869 L772.92423,239.184869 L772.92423,197.595099 L768.033073,197.595099 L768.033073,188.683005 L751.962132,188.683005 L751.962132,197.595099 L747.070975,197.595099 L747.070975,238.835376 L716.675933,238.835376 L716.675933,221.884923 L708.640462,221.884923 L708.640462,205.982952 L682.088471,205.982952 L682.088471,210.875866 L658.506111,210.875866 L658.506111,221.710176 L655.885848,221.710176 L651.693429,96.460309 L655.361796,96.460309 C656.409901,96.460309 657.283322,95.5865743 657.283322,94.5380927 L657.283322,92.2663825 C657.283322,92.0916356 657.283322,92.0916356 657.283322,92.0916356 L659.379531,92.0916356 L659.379531,82.4805541 L657.283322,82.4805541 C657.283322,82.4805541 657.283322,82.3058071 657.283322,82.3058071 L657.283322,80.034097 C657.283322,78.9856153 656.409901,78.1118807 655.361796,78.1118807 L653.614954,78.1118807 L653.614954,65.8795951 L651.34406,65.8795951 L651.34406,31.6291955 L652.741534,31.6291955 L652.741534,25.8625466 L650.121271,25.8625466 L650.121271,0 L645.404799,0 L645.404799,25.8625466 L642.784537,25.8625466 L642.784537,31.6291955 L644.18201,31.6291955 L644.18201,65.8795951 L641.911116,65.8795951 L641.911116,78.1118807 L640.164275,78.1118807 C639.11617,78.1118807 638.242749,78.9856153 638.242749,80.034097 L638.242749,82.3058071 C638.242749,82.4805541 638.242749,82.4805541 638.242749,82.4805541 L636.146539,82.4805541 L636.146539,92.0916356 L638.242749,92.0916356 C638.242749,92.0916356 638.242749,92.2663825 638.242749,92.2663825 L638.242749,94.5380927 C638.242749,95.5865743 639.11617,96.460309 640.164275,96.460309 L643.832642,96.460309 L639.290854,239.010123 L630.731331,239.010123 L630.731331,184.489078 L626.014858,184.489078 L626.014858,180.644646 L618.50344,180.644646 L618.50344,184.489078 L614.31102,184.489078 L614.31102,149.364944 L599.462867,149.364944 L599.462867,143.423548 L581.994452,143.423548 L581.994452,149.539691 L567.146299,149.539691 L567.146299,202.313266 C552.822199,189.556739 532.908206,181.693127 510.898003,181.693127 C483.821959,181.693127 460.064915,193.575919 445.740814,211.7496 L445.740814,239.184869 L430.543293,239.184869 L430.543293,217.690996 L421.110349,217.690996 L421.110349,198.993074 L403.117881,198.993074 L403.117881,140.627597 L385.649466,140.627597 L385.649466,124.201385 L378.836784,124.201385 L378.836784,118.259989 L354.905056,118.259989 L354.905056,239.010123 L4,239.010123 L4,286 L354.905056,286 L356.302529,286 L361.892422,286 L375.343101,286 L378.836784,286 L385.649466,286 L403.292566,286 L430.543293,286 L445.740814,286 L567.146299,286 L576.055191,286 L613.612284,286 L614.136336,286 L630.556646,286 L638.941486,286 L653.44027,286 L656.409901,286 L688.726469,286 L716.675933,286 L747.070975,286 L759.997602,286 L772.92423,286 L782.881226,286 L798.777484,286 L814.673742,286 L827.775053,286 L850.309309,286 L858.519464,286 L859.567569,286 L884.372718,286 L888.041085,286 L903.762659,286 L904.63608,286 L908.304447,286 L912.671551,286 L952.848905,286 L965.25148,286 L999.664258,286 L1007.69973,286 L1033.72767,286 L1067.09234,286 L1456,286 L1456,239.010123 L1067.09234,239.010123 L1067.09234,239.184869 Z" id="Path" stroke="#FFFFFF" fill="#ED5C37" fill-rule="nonzero"></path>
                </g>
            </g>
        </g>
    </g>
</svg>